{ 
   "_links":{ 
      "self":{ 
         "href":"http://localhost:8800/Communicator/getAllRecords/{{remote}}?page=3&pagesize=2&todate=1524096000"
      },
      "first":{ 
         "href":"http://localhost:8800/Communicator/getAllRecords/{{remote}}?page=1&pagesize=2&todate=1524096000"
      },
      "prev":{ 
         "href":"http://localhost:8800/Communicator/getAllRecords/{{remote}}?page=2&pagesize=2&todate=1524096000"
      },
      "next":{ 
         "href":"http://localhost:8800/Communicator/getAllRecords/{{remote}}?page=3&pagesize=2&todate=1524096000"
      },
      "last":{ 
         "href":"http://localhost:8800/Communicator/getAllRecords/{{remote}}?page=3&pagesize=2&todate=1524096000"
      }
   },
   "total":6,
   "currentPageNumber":3,
   "lastPageNumber":3,
   "pageSize":2,
   "todate":1524096000,
   "localId": "{{local}}",
   "remoteId": "{{remote}}",
   "records":[ 
      { 
         "fields":{ 
            "vorname":"QWNodHVuZyEgRGllc2VyIEJsaW5kdGV4dCB3aXJkIGdlcmFkZSBkdXJjaCAxMzAgTWlsbGlvbmVuIFJlemVw",
            "nachname":"VmVnZ2llcyBlcyBib251cyB2b2JpcywgcHJvaW5kZSB2b3MgcG9zdHVsbyBlc3N1bSBtYWdpcyBrb2hscmFi",
            "geburtsname":"AAAAAAAAAAAAAAAAAAAAAAAAAAAAAAAAAAAAAAAAAAAAAAAAAAAAAAAAAAAAAAAAAAAAAAAAAAAAAAAAAAAA",
            "geburtstag": 17,
            "geburtsmonat": 9,
            "geburtsjahr": 1953,
            "plz":"55332",
            "ort":"a2F0YW5hIHdvbWFuIHZpbnlsIHBhcGllci1tYWNoZSBmcmVlLW1hcmtldCBzb3VsLWRlbGF5IGRydWdzIEJB"
         },
         "id": "ID5"
      },
      { 
         "fields":{ 
            "vorname":"bm9kYWxpdHkgcmVjZWRpbmcgZnJhbmNoaXNlLiBjYXJkYm9hcmQgbWFya2V0aW5nIG1vZGVtIHN0aW11bGF0",
            "nachname":"YWJsYXRpdmUgU2FuIEZyYW5jaXNjbyBtaWxpdGFyeS1ncmFkZSBjeWJlci0uIGtuaWZlIHRhdHRvbyBUb2t5",
            "geburtsname":"Ffr57TPsOWTf/oPteUHMrDX7PM2ADHqRA45Rr53+cacOs7mnxUFBL9F5VyRWU+V+y0qmCxCplyJo5pzFpE1g",
            "geburtstag":31,
            "geburtsmonat":1,
            "geburtsjahr":1993,
            "plz":"33423",
            "ort":""
         },
         "id": "ID6"
      }
   ]
}
