{ 
   "_links":{ 
      "self":{ 
         "href":"http://localhost:8800/Communicator/getAllRecords/{{remote}}?page=1&pagesize=2&todate=1524096000"
      },
      "first":{ 
         "href":"http://localhost:8800/Communicator/getAllRecords/{{remote}}?page=1&pagesize=2&todate=1524096000"
      },
      "prev":{ 
         "href":"http://localhost:8800/Communicator/getAllRecords/{{remote}}?page=1&pagesize=2&todate=1524096000"
      },
      "next":{ 
         "href":"http://localhost:8800/Communicator/getAllRecords/{{remote}}?page=2&pagesize=2&todate=1524096000"
      },
      "last":{ 
         "href":"http://localhost:8800/Communicator/getAllRecords/{{remote}}?page=3&pagesize=2&todate=1524096000"
      }
   },
   "total":6,
   "currentPageNumber":1,
   "lastPageNumber":3,
   "pageSize": 2,
   "todate":1524096000,
   "localId": "{{local}}",
   "remoteId": "{{remote}}",
   "records":[ 
      { 
         "fields":{ 
            "vorname":"TG9yZW0gaXBzdW0gZG9sb3Igc2l0IGFtZXQsIGNvbnNlY3RldHVlciBhZGlwaXNjaW5nIGVsaXQuIEFlbmVh",
            "nachname":"QXVjaCBnaWJ0IGVzIG5pZW1hbmRlbiwgZGVyIGRlbiBTY2htZXJ6IGFuIHNpY2ggbGllYnQsIHN1Y2h0IG9k",
            "geburtsname":null,
            "geburtstag": 14,
            "geburtsmonat": 2,
            "geburtsjahr": 1963,
            "plz":"65434",
            "ort":"TGkgRXVyb3BhbiBsaW5ndWVzIGVzIG1lbWJyZXMgZGVsIHNhbSBmYW1pbGllLiBMb3Igc2VwYXJhdCBleGlz"
         },
         "id": "ID1"
      },
      { 
         "fields":{ 
            "vorname":"RWluZSB3dW5kZXJiYXJlIEhlaXRlcmtlaXQgaGF0IG1laW5lIGdhbnplIFNlZWxlIGVpbmdlbm9tbWVuLCBn",
            "nachname":"SmVtYW5kIG11c3N0ZSBKb3NlZiBLLiB2ZXJsZXVtZGV0IGhhYmVuLCBkZW5uIG9obmUgZGFzcyBlciBldHdh",
            "geburtsname":"RXMgZ2lidCBpbSBNb21lbnQgaW4gZGllc2UgTWFubnNjaGFmdCwgb2gsIGVpbmlnZSBTcGllbGVyIHZlcmdl",
            "geburtstag":24,
            "geburtsmonat":12,
            "geburtsjahr":1964,
            "plz":"65432",
            "ort":"SmVtYW5kIG11c3N0ZSBKb3NlZiBLLiB2ZXJsZXVtZGV0IGhhYmVuLCBkZW5uIG9obmUgZGFzcyBlciBldHdh"
         },
         "id": "ID2"
      }
   ]
}
