{ 
   "_links":{ 
      "self":{ 
         "href":"http://localhost:8800/Communicator/getAllRecords/{{remote}}?page=2&pagesize=2&todate=1524096000"
      },
      "first":{ 
         "href":"http://localhost:8800/Communicator/getAllRecords/{{remote}}?page=1&pagesize=2&todate=1524096000"
      },
      "prev":{ 
         "href":"http://localhost:8800/Communicator/getAllRecords/{{remote}}?page=1&pagesize=2&todate=1524096000"
      },
      "next":{ 
         "href":"http://localhost:8800/Communicator/getAllRecords/{{remote}}?page=3&pagesize=2&todate=1524096000"
      },
      "last":{ 
         "href":"http://localhost:8800/Communicator/getAllRecords/{{remote}}?page=3&pagesize=2&todate=1524096000"
      }
   },
   "total":6,
   "currentPageNumber":2,
   "lastPageNumber":3,
   "pageSize": 2,
   "todate":1524096000,
   "localId": "{{local}}",
   "remoteId": "{{remote}}",
   "records":[ 
      { 
         "fields":{ 
            "vorname": "iz1tCN0iHA9Odb0K4u8CneS8O/SBFz5PmUk+GD+k952cH6SymAxKlzlL0kglvXMR1Qk2sBeRfs1IaNfPn/1A",
            "nachname": "SLrGRxkLDlrcMUtsqbyHS/LvEt+sjRvVDbymnrYPWhBoxhdL/Wh4BFnSVMWeHyw15TtrNygPqa9lk9aCFR1g",
            "geburtsname": "LNSyH7znH/8+/lxRNTIHBu7gHYIqqoor1yO5AWOpNfK0Ylgr+/AZMZvJI52ypw7v3Ed4IIYvaWa/DRjIvfDw",
            "geburtstag": 24,
            "geburtsmonat": 12,
            "geburtsjahr": 1964,
            "plz":"65432",
            "ort":"V2llIGJlaWxhZXVmaWcsIGJlaW0gVW1ibGFldHRlcm4gZGVyIEJ1Y2hzZWl0ZW4sIGhhYmUgaWNoIERlaW4g"
         },
         "id": "ID3"
      },
      { 
         "fields":{ 
            "vorname":"SmEsIHdpciBmaW5kZW4gYXVjaCwgZGFzcyBtYW4gdWViZXIgZGllIENvcHkgbm9jaCBtYWwgcmVkZW4gc29s",
            "nachname":"SHVuZ2VyLiBTdHVmZSBmdWVyIFN0dWZlIHNjaG9iIHNpZSBzaWNoIGRpZSBUcmVwcGUgaGluYXVmLiBQaXp6",
            "geburtsname":"TmVpbiwgbWVpbmUgVGV4dGUgbGVzIGljaCBuaWNodCwgc28gbmljaHQsIHN0b2VobnRlIE94bW94LiBFciB3",
            "geburtstag":3,
            "geburtsmonat":10,
            "geburtsjahr":1978,
            "plz":"65432",
            "ort":"SWNoIGJpbiBCbGluZHRleHQuIFZvbiBHZWJ1cnQgYW4uIEVzIGhhdCBsYW5nZSBnZWRhdWVydCwgYmlzIGlj"
         },
         "id": "ID4"
      }
   ]
}
