{ 
   "_links":{ 
      "self":{ 
         "href":"https://ml.mitro.dkfz.de:8080/rest/api/AllRecords?page=2&pagesize=2&todate=1524096000"
      },
      "first":{ 
         "href":"https://ml.mitro.dkfz.de:8080/rest/api/AllRecords?page=1&pagesize=2&todate=1524096000"
      },
      "prev":{ 
         "href":"https://ml.mitro.dkfz.de:8080/rest/api/AllRecords?page=1&pagesize=2&todate=1524096000"
      },
      "next":{ 
         "href":"http://localhost:8800/rest/api/AllRecords?page=3&pagesize=2&todate=1524096000"
      },
      "last":{ 
         "href":"https://ml.mitro.dkfz.de:8080/rest/api/AllRecords?page=3&pagesize=2&todate=1524096000"
      }
   },
   "total":6,
   "currentPageNumber":2,
   "lastPageNumber":3,
   "pageSize": 2,
   "todate":1524096000,
   "records":[ 
      { 
         "fields":{ 
            "vorname": "SLrGRxkLDlrcMUtsqbyHS/LvEt+sjRvVDbymnrYPWhBoxhdL/Wh4BFnSVMWeHyw15TtrNygPqa9lk9aCFR1g",
            "nachname":"VWViZXJhbGwgZGllc2VsYmUgYWx0ZSBMZWllci4gRGFzIExheW91dCBpc3QgZmVydGlnLCBkZXIgVGV4dCBs",
            "geburtsname": "LNSyH7znH/8+/lxRNTIHBu7gHYIqqoor1yO5AWOpNfK0Ylgr+/AZMZvJI52ypw7v3Ed4IIYvaWa/DRjIvfDw",
            "geburtstag": 24,
            "geburtsmonat": 12,
            "geburtsjahr": 1964,
            "plz":"65432",
            "ort":"V2llIGJlaWxhZXVmaWcsIGJlaW0gVW1ibGFldHRlcm4gZGVyIEJ1Y2hzZWl0ZW4sIGhhYmUgaWNoIERlaW4g"
         },
         "ids":[ 
            { 
               "idType":"lid",
               "idString":"11113"
            },
            {
              "idType": "pid",
              "idString": "abcd123"
            }
         ]
      },
      { 
         "fields":{ 
            "vorname":"SmEsIHdpciBmaW5kZW4gYXVjaCwgZGFzcyBtYW4gdWViZXIgZGllIENvcHkgbm9jaCBtYWwgcmVkZW4gc29s",
            "nachname":"SHVuZ2VyLiBTdHVmZSBmdWVyIFN0dWZlIHNjaG9iIHNpZSBzaWNoIGRpZSBUcmVwcGUgaGluYXVmLiBQaXp6",
            "geburtsname":"TmVpbiwgbWVpbmUgVGV4dGUgbGVzIGljaCBuaWNodCwgc28gbmljaHQsIHN0b2VobnRlIE94bW94LiBFciB3",
            "geburtstag":3,
            "geburtsmonat":10,
            "geburtsjahr":1978,
            "plz":"65432",
            "ort":"SWNoIGJpbiBCbGluZHRleHQuIFZvbiBHZWJ1cnQgYW4uIEVzIGhhdCBsYW5nZSBnZWRhdWVydCwgYmlzIGlj"
         },
         "ids":[ 
            { 
               "idType":"lid",
               "idString":"11114"
            }
         ]
      }
   ]
}
