{ 
   "_links":{ 
      "self":{ 
         "href":"https://ml.mitro.dkfz.de:8080/rest/api/AllRecords?page=3&pagesize=2&todate=1524096000"
      },
      "first":{ 
         "href":"https://ml.mitro.dkfz.de:8080/rest/api/AllRecords?page=1&pagesize=2&todate=1524096000"
      },
      "prev":{ 
         "href":"https://ml.mitro.dkfz.de:8080/rest/api/AllRecords?page=2&pagesize=2&todate=1524096000"
      },
      "next":{ 
         "href":"https://ml.mitro.dkfz.de:8080/rest/api/AllRecords?page=3&pagesize=2&todate=1524096000"
      },
      "last":{ 
         "href":"https://ml.mitro.dkfz.de:8080/rest/api/AllRecords?page=3&pagesize=2&todate=1524096000"
      }
   },
   "total":6,
   "currentPageNumber":3,
   "lastPageNumber":3,
   "pageSize":2,
   "todate":1524096000,
   "records":[ 
      { 
         "fields":{ 
            "vorname":"QWNodHVuZyEgRGllc2VyIEJsaW5kdGV4dCB3aXJkIGdlcmFkZSBkdXJjaCAxMzAgTWlsbGlvbmVuIFJlemVw",
            "nachname":"VmVnZ2llcyBlcyBib251cyB2b2JpcywgcHJvaW5kZSB2b3MgcG9zdHVsbyBlc3N1bSBtYWdpcyBrb2hscmFi",
            "geburtsname":"AAAAAAAAAAAAAAAAAAAAAAAAAAAAAAAAAAAAAAAAAAAAAAAAAAAAAAAAAAAAAAAAAAAAAAAAAAAAAAAAAAAA",
            "geburtstag": 17,
            "geburtsmonat": 9,
            "geburtsjahr": 1953,
            "plz":"55332",
            "ort":"a2F0YW5hIHdvbWFuIHZpbnlsIHBhcGllci1tYWNoZSBmcmVlLW1hcmtldCBzb3VsLWRlbGF5IGRydWdzIEJB"
         },
         "ids":[ 
            { 
               "idType":"lid",
               "idString":"11115"
            }
         ]
      },
      { 
         "fields":{ 
            "vorname":"bm9kYWxpdHkgcmVjZWRpbmcgZnJhbmNoaXNlLiBjYXJkYm9hcmQgbWFya2V0aW5nIG1vZGVtIHN0aW11bGF0",
            "nachname":"YWJsYXRpdmUgU2FuIEZyYW5jaXNjbyBtaWxpdGFyeS1ncmFkZSBjeWJlci0uIGtuaWZlIHRhdHRvbyBUb2t5",
            "geburtsname":"Ffr57TPsOWTf/oPteUHMrDX7PM2ADHqRA45Rr53+cacOs7mnxUFBL9F5VyRWU+V+y0qmCxCplyJo5pzFpE1g",
            "geburtstag":31,
            "geburtsmonat":1,
            "geburtsjahr":1993,
            "plz":"33423",
            "ort":""
         },
         "ids":[ 
            { 
               "idType":"lid",
               "idString":"11116"
            }
         ]
      }
   ]
}
